…
``` r
core_tree_path_data(path)
```

    ## # A tibble: 2 × 3
    ##   report_group_id path                                                cluster_id
    ##   <chr>           <chr>                                               <chr>     
    ## 1 all             /home/fosterz/R/x86_64-pc-linux-gnu-library/4.4/ps… 1         
    ## 2 all             /home/fosterz/R/x86_64-pc-linux-gnu-library/4.4/ps… 2

``` r
sendsketch_path_data(path)
```

    ## # A tibble: 19 × 3
    ##   report_group_id path                                                 sample_id
    ##   <chr>           <chr>                                                <chr>    
    ## 1 all             /home/fosterz/R/x86_64-pc-linux-gnu-library/4.4/psm… FF1      
    ## 2 all             /home/fosterz/R/x86_64-pc-linux-gnu-library/4.4/psm… LF1      
    ## 3 all             /home/fosterz/R/x86_64-pc-linux-gnu-library/4.4/psm… LF2      
    ## 4 all             /home/fosterz/R/x86_64-pc-linux-gnu-library/4.4/psm… LF3      
    ## 5 all             /home/fosterz/R/x86_64-pc-linux-gnu-library/4.4/psm… LF4      
    ## # ℹ 14 more rows

You can also get parsed versions of all of these `pathogensuriveillance`
outputs using functions ending in `parsed`:

``` r
sendsketch_parsed(path)
```

    ## # A tibble: 380 × 39
    ##   sample_id report_group_id  WKID KID     ANI SSU   SSULen Complt Contam Contam2
    ##   <chr>     <chr>           <dbl> <chr> <dbl> <chr>  <dbl>  <dbl> <chr>  <chr>  
    ## 1 FF1       all              96.3 65.6…  99.9 .          0  100   3.69%  0.04%  
    ## 2 FF1       all              31.4 21.4…  95.9 .          0   76.0 47.96% 0.04%  
    ## 3 FF1       all              20.3 14.0…  94.4 .          0   67.1 53.39% 0.04%  
    ## 4 FF1       all              20.7 13.7…  94.5 .          0   61.8 58.96% 0.12%  
    ## 5 FF1       all              15   10.4…  93.4 .          0   61.2 57.56% 0.04%  
    ## # ℹ 375 more rows
    ## # ℹ 29 more variables: uContam <chr>, Score <dbl>, `E-Val` <dbl>, Depth <dbl>,
    ## #   Depth2 <dbl>, Volume <dbl>, RefHits <dbl>, Matches <dbl>, Unique <dbl>,
    ## #   Unique2 <dbl>, Unique3 <dbl>, noHit <dbl>, Length <dbl>, TaxID <dbl>,
    ## #   ImgID <dbl>, gBases <chr>, gKmers <chr>, gSize <chr>, gSeqs <dbl>,
    ## #   GC <dbl>, rDiv <dbl>, qDiv <dbl>, rSize <dbl>, qSize <dbl>, cHits <dbl>,
    ## #   taxName <chr>, file <chr>, seqName <chr>, taxonomy <chr>
…
